{
    "variants": {
        "enabled=false,facing=north": { "model": "apsrepowered:magmatic_generator" },
        "enabled=false,facing=south": { "model": "apsrepowered:magmatic_generator", "y": 180 },
        "enabled=false,facing=west":  { "model": "apsrepowered:magmatic_generator", "y": 270 },
        "enabled=false,facing=east":  { "model": "apsrepowered:magmatic_generator", "y": 90 },
        "enabled=true,facing=north": { "model": "apsrepowered:magmatic_generator_active" },
        "enabled=true,facing=south": { "model": "apsrepowered:magmatic_generator_active", "y": 180 },
        "enabled=true,facing=west":  { "model": "apsrepowered:magmatic_generator_active", "y": 270 },
        "enabled=true,facing=east":  { "model": "apsrepowered:magmatic_generator_active", "y": 90 }
    }
}