{
    "parent": "apsrepowered:block/orientable",
    "textures": {
        "top": "apsrepowered:blocks/machine_down",
        "front": "apsrepowered:blocks/fluid_pump_front",
        "side": "apsrepowered:blocks/machine_side",
		"down": "apsrepowered:blocks/fluid_pump_down"
    }
}