{
    "parent": "block/cube",
    "textures": {
        "up": "apsrepowered:blocks/ic2_pneumatic_gen_top",
		"down": "apsrepowered:blocks/ic2_pneumatic_gen_bottom",
		"east": "apsrepowered:blocks/ic2_pneumatic_gen_lv",
		"west": "apsrepowered:blocks/ic2_pneumatic_gen_lv",
		"south": "apsrepowered:blocks/ic2_pneumatic_gen_lv",
		"north": "apsrepowered:blocks/ic2_pneumatic_gen_lv",
		"particle": "apsrepowered:blocks/ic2_pneumatic_gen_lv"
    }
}